{
  "logs": [
    {
      "id": "audit-1",
      "adminId": "admin-1",
      "adminEmail": "admin@harbotlist.com",
      "action": "user_suspended",
      "resource": "user",
      "resourceId": "user-2",
      "details": {
        "reason": "Terms of service violation",
        "duration": "7 days"
      },
      "timestamp": "2024-09-28T10:15:00Z",
      "ipAddress": "192.168.1.100",
      "userAgent": "Mozilla/5.0 (Macintosh; Intel Mac OS X 10_15_7)"
    },
    {
      "id": "audit-2",
      "adminId": "admin-1",
      "adminEmail": "admin@harbotlist.com",
      "action": "listing_approved",
      "resource": "listing",
      "resourceId": "listing-3",
      "details": {
        "previousStatus": "flagged",
        "newStatus": "active"
      },
      "timestamp": "2024-09-28T09:30:00Z",
      "ipAddress": "192.168.1.100",
      "userAgent": "Mozilla/5.0 (Macintosh; Intel Mac OS X 10_15_7)"
    }
  ],
  "total": 1250,
  "page": 1,
  "totalPages": 125
}